[gd_scene load_steps=4 format=2]

[ext_resource path="res://core/Level.tscn" type="PackedScene" id=1]
[ext_resource path="res://addons/laec-is-you/entity/Item.gd" type="Script" id=2]
[ext_resource path="res://core/Item.tscn" type="PackedScene" id=3]

[node name="MotsCroisesLevel" instance=ExtResource( 1 )]
title = "Croisée des Chemins"

[node name="HexagonalTileMap" parent="." index="1"]
cell_custom_transform = Transform2D( 64, 0, 0, 55.4256, -32, -27.7128 )
tile_data = PoolIntArray( -196610, 8, 0, -196609, 8, 0, -262144, 8, 0, -262143, 8, 0, -262142, 8, 0, -131075, 8, 0, -131074, 8, 0, -131073, 8, 0, -196608, 8, 0, -196607, 8, 0, -196606, 8, 0, -196605, 8, 0, -65539, 8, 0, -65538, 8, 0, -131072, 8, 0, -131070, 8, 0, -131069, 8, 0, -131068, 8, 0, -131067, 8, 0, -4, 8, 0, -3, 8, 0, -2, 8, 0, -1, 8, 0, -65536, 8, 0, -65535, 8, 0, -65534, 8, 0, -65533, 8, 0, -65532, 8, 0, -65531, 8, 0, 65532, 8, 0, 65533, 8, 0, 65534, 8, 0, 65535, 8, 0, 0, 8, 0, 1, 8, 0, 2, 8, 0, 3, 8, 0, 4, 8, 0, 5, 8, 0, 6, 8, 0, 131067, 8, 0, 131068, 8, 0, 131069, 8, 0, 131071, 8, 0, 65536, 8, 0, 65538, 8, 0, 65539, 8, 0, 65540, 8, 0, 65541, 8, 0, 196603, 8, 0, 196604, 8, 0, 196605, 8, 0, 196606, 8, 0, 131074, 8, 0, 131075, 8, 0, 131076, 8, 0, 131077, 8, 0, 262139, 8, 0, 262140, 8, 0, 262141, 8, 0, 262142, 8, 0, 262143, 8, 0, 196608, 8, 0, 196609, 8, 0, 196610, 8, 0, 196611, 8, 0, 196612, 8, 0, 327676, 8, 0, 327677, 8, 0, 327678, 8, 0, 327679, 8, 0, 262144, 8, 0, 262145, 8, 0, 262146, 8, 0, 262147, 8, 0, 262148, 8, 0 )

[node name="LaecText" type="Node2D" parent="Items" index="0" instance=ExtResource( 3 )]
position = Vector2( -64, -9.2376 )
script = ExtResource( 2 )
is_text = true
concept_name = "laec"
hexagon_position = Vector2( -1, 0 )
cell_position = Vector2( -1, 0 )

[node name="FranceText" parent="Items" index="1" instance=ExtResource( 3 )]
modulate = Color( 0.9, 0.9, 0.9, 0.7 )
position = Vector2( -160, -64.6632 )
is_text = true
concept_name = "france"
hexagon_position = Vector2( -3, -1 )
cell_position = Vector2( -3, -1 )
is_lit = false

[node name="France" parent="Items" index="2" instance=ExtResource( 3 )]
position = Vector2( -64, -120.089 )
concept_name = "france"
hexagon_position = Vector2( -1, -2 )
cell_position = Vector2( -1, -2 )

[node name="France2" parent="Items" index="3" instance=ExtResource( 3 )]
position = Vector2( 64, -120.089 )
concept_name = "france"
hexagon_position = Vector2( 1, -2 )
cell_position = Vector2( 1, -2 )

[node name="Laec" parent="Items" index="4" instance=ExtResource( 3 )]
position = Vector2( 256, 212.465 )
concept_name = "laec"
hexagon_position = Vector2( 4, 4 )
cell_position = Vector2( 4, 4 )
is_you = true

[node name="LaecText2" parent="Items" index="5" instance=ExtResource( 3 )]
modulate = Color( 0.9, 0.9, 0.9, 0.7 )
position = Vector2( -256, 101.614 )
is_text = true
concept_name = "laec"
hexagon_position = Vector2( -4, 2 )
cell_position = Vector2( -4, 2 )
is_lit = false

[node name="WinText" parent="Items" index="6" instance=ExtResource( 3 )]
modulate = Color( 0.9, 0.9, 0.9, 0.7 )
position = Vector2( 224, -64.6632 )
is_text = true
concept_name = "win"
hexagon_position = Vector2( 3, -1 )
cell_position = Vector2( 3, -1 )
is_lit = false

[node name="IsText" parent="Items" index="7" instance=ExtResource( 3 )]
position = Vector2( 0, -9.2376 )
is_text = true
concept_name = "is"

[node name="YouText" parent="Items" index="8" instance=ExtResource( 3 )]
position = Vector2( 64, -9.2376 )
is_text = true
concept_name = "you"
hexagon_position = Vector2( 1, 0 )
cell_position = Vector2( 1, 0 )
